%YAML 1.1
%TAG !u! tag:unity3d.com,2011:
--- !u!21 &2100000
Material:
  serializedVersion: 6
  m_ObjectHideFlags: 0
  m_PrefabParentObject: {fileID: 0}
  m_PrefabInternal: {fileID: 0}
  m_Name: room3_R_glasspane_day
  m_Shader: {fileID: 4800000, guid: a90db5f725f447343b6e70694ff21c7d, type: 3}
  m_ShaderKeywords: 
  m_LightmapFlags: 5
  m_CustomRenderQueue: -1
  stringTagMap: {}
  m_SavedProperties:
    serializedVersion: 2
    m_TexEnvs:
      data:
        first:
          name: _MainTex
        second:
          m_Texture: {fileID: 2800000, guid: 7ff7b2bab756ef04cbdfbfd9cb743386, type: 3}
          m_Scale: {x: 1, y: 1}
          m_Offset: {x: 0, y: 0}
      data:
        first:
          name: _Cube
        second:
          m_Texture: {fileID: 8900000, guid: 1664ad78e86be74439fb83a1d8f9b28a, type: 2}
          m_Scale: {x: 1, y: 1}
          m_Offset: {x: 0, y: 0}
    m_Floats:
      data:
        first:
          name: _Reflection
        second: 0
      data:
        first:
          name: _Shininess
        second: 3.0000007
      data:
        first:
          name: _EdgeAlpha
        second: 0
      data:
        first:
          name: _Gloss
        second: 0
      data:
        first:
          name: _FrezPow
        second: 0.95522386
      data:
        first:
          name: _FrezFalloff
        second: 1.1940298
      data:
        first:
          name: _Metalics
        second: 0.17910448
    m_Colors:
      data:
        first:
          name: _Color
        second: {r: 0.54509807, g: 0.9429789, b: 1, a: 0.08627451}
      data:
        first:
          name: _SpecColor
        second: {r: 1, g: 1, b: 1, a: 0}
      data:
        first:
          name: _ReflectColor
        second: {r: 0.4029851, g: 0.08119849, b: 0.08119849, a: 0.5019608}
      data:
        first:
          name: _Emission
        second: {r: 0, g: 0, b: 0, a: 0}
