%YAML 1.1
%TAG !u! tag:unity3d.com,2011:
--- !u!29 &1
SceneSettings:
  m_ObjectHideFlags: 0
  m_PVSData: 
  m_PVSObjectsArray: []
  m_PVSPortalsArray: []
  m_OcclusionBakeSettings:
    smallestOccluder: 5
    smallestHole: 0.25
    backfaceThreshold: 100
--- !u!196 &2
NavMeshSettings:
  serializedVersion: 2
  m_ObjectHideFlags: 0
  m_BuildSettings:
    serializedVersion: 2
    agentRadius: 0.5
    agentHeight: 2
    agentSlope: 45
    agentClimb: 0.4
    ledgeDropHeight: 0
    maxJumpAcrossDistance: 0
    accuratePlacement: 0
    minRegionArea: 2
    cellSize: 0.16666667
    manualCellSize: 0
  m_NavMeshData: {fileID: 0}
--- !u!104 &13
RenderSettings:
  m_ObjectHideFlags: 0
  serializedVersion: 6
  m_Fog: 0
  m_FogColor: {r: 0.5, g: 0.5, b: 0.5, a: 1}
  m_FogMode: 3
  m_FogDensity: 0.01
  m_LinearFogStart: 0
  m_LinearFogEnd: 300
  m_AmbientSkyColor: {r: 1, g: 1, b: 1, a: 1}
  m_AmbientEquatorColor: {r: 1, g: 1, b: 1, a: 1}
  m_AmbientGroundColor: {r: 1, g: 1, b: 1, a: 1}
  m_AmbientIntensity: 1
  m_AmbientMode: 3
  m_SkyboxMaterial: {fileID: 0}
  m_HaloStrength: 0.5
  m_FlareStrength: 1
  m_FlareFadeSpeed: 3
  m_HaloTexture: {fileID: 0}
  m_SpotCookie: {fileID: 10001, guid: 0000000000000000e000000000000000, type: 0}
  m_DefaultReflectionMode: 0
  m_DefaultReflectionResolution: 128
  m_ReflectionBounces: 1
  m_ReflectionIntensity: 1
  m_CustomReflection: {fileID: 0}
  m_Sun: {fileID: 0}
--- !u!157 &17
LightmapSettings:
  m_ObjectHideFlags: 0
  serializedVersion: 6
  m_GIWorkflowMode: 1
  m_LightmapsMode: 1
  m_GISettings:
    serializedVersion: 2
    m_BounceScale: 1
    m_IndirectOutputScale: 1
    m_AlbedoBoost: 1
    m_TemporalCoherenceThreshold: 1
    m_EnvironmentLightingMode: 0
    m_EnableBakedLightmaps: 1
    m_EnableRealtimeLightmaps: 0
  m_LightmapEditorSettings:
    serializedVersion: 3
    m_Resolution: 1
    m_BakeResolution: 50
    m_TextureWidth: 1024
    m_TextureHeight: 1024
    m_AOMaxDistance: 1
    m_Padding: 2
    m_CompAOExponent: 0
    m_LightmapParameters: {fileID: 0}
    m_TextureCompression: 0
    m_FinalGather: 0
    m_FinalGatherRayCount: 1024
    m_ReflectionCompression: 2
  m_LightingDataAsset: {fileID: 0}
  m_RuntimeCPUUsage: 25
--- !u!1 &19
GameObject:
  m_ObjectHideFlags: 0
  m_PrefabParentObject: {fileID: 100006, guid: bcf1704da4dcf4ca7be0acf40020b0c4, type: 2}
  m_PrefabInternal: {fileID: 25}
  serializedVersion: 4
  m_Component:
  - 4: {fileID: 55}
  - 114: {fileID: 20}
  m_Layer: 0
  m_Name: CameraPivot
  m_TagString: Untagged
  m_Icon: {fileID: 0}
  m_NavMeshLayer: 0
  m_StaticEditorFlags: 0
  m_IsActive: 1
--- !u!114 &20
MonoBehaviour:
  m_ObjectHideFlags: 0
  m_PrefabParentObject: {fileID: 11400000, guid: bcf1704da4dcf4ca7be0acf40020b0c4,
    type: 2}
  m_PrefabInternal: {fileID: 25}
  m_GameObject: {fileID: 19}
  m_Enabled: 1
  m_EditorHideFlags: 0
  m_Script: {fileID: 11500000, guid: b25d02d5454ac4210abfe815eb4dbe40, type: 3}
  m_Name: 
  m_EditorClassIdentifier: 
  targetTransform: {fileID: 21}
  faceForward: 0
--- !u!4 &21
Transform:
  m_ObjectHideFlags: 0
  m_PrefabParentObject: {fileID: 400012, guid: bcf1704da4dcf4ca7be0acf40020b0c4, type: 2}
  m_PrefabInternal: {fileID: 25}
  m_GameObject: {fileID: 64}
  m_LocalRotation: {x: 0, y: 0, z: 0, w: 1}
  m_LocalPosition: {x: 0, y: 0, z: 0}
  m_LocalScale: {x: 1, y: 1, z: 1}
  m_Children:
  - {fileID: 51}
  m_Father: {fileID: 22}
  m_RootOrder: 1
--- !u!4 &22
Transform:
  m_ObjectHideFlags: 0
  m_PrefabParentObject: {fileID: 400014, guid: bcf1704da4dcf4ca7be0acf40020b0c4, type: 2}
  m_PrefabInternal: {fileID: 25}
  m_GameObject: {fileID: 60}
  m_LocalRotation: {x: 0, y: 0, z: 0, w: 1}
  m_LocalPosition: {x: 0, y: 0, z: 0}
  m_LocalScale: {x: 1, y: 1, z: 1}
  m_Children:
  - {fileID: 55}
  - {fileID: 21}
  m_Father: {fileID: 23}
  m_RootOrder: 0
--- !u!4 &23
Transform:
  m_ObjectHideFlags: 0
  m_PrefabParentObject: {fileID: 400004, guid: bcf1704da4dcf4ca7be0acf40020b0c4, type: 2}
  m_PrefabInternal: {fileID: 25}
  m_GameObject: {fileID: 62}
  m_LocalRotation: {x: 0, y: 0, z: 0, w: 1}
  m_LocalPosition: {x: 0.8, y: 0.2, z: 0}
  m_LocalScale: {x: 0, y: 0, z: 1}
  m_Children:
  - {fileID: 22}
  m_Father: {fileID: 0}
  m_RootOrder: 1
--- !u!1001 &25
Prefab:
  m_ObjectHideFlags: 0
  serializedVersion: 2
  m_Modification:
    m_TransformParent: {fileID: 0}
    m_Modifications:
    - target: {fileID: 400014, guid: bcf1704da4dcf4ca7be0acf40020b0c4, type: 2}
      propertyPath: m_LocalRotation.x
      value: 0
      objectReference: {fileID: 0}
    - target: {fileID: 400014, guid: bcf1704da4dcf4ca7be0acf40020b0c4, type: 2}
      propertyPath: m_LocalRotation.y
      value: 0
      objectReference: {fileID: 0}
    - target: {fileID: 400014, guid: bcf1704da4dcf4ca7be0acf40020b0c4, type: 2}
      propertyPath: m_LocalRotation.z
      value: 0
      objectReference: {fileID: 0}
    - target: {fileID: 400014, guid: bcf1704da4dcf4ca7be0acf40020b0c4, type: 2}
      propertyPath: m_LocalRotation.w
      value: 1
      objectReference: {fileID: 0}
    - target: {fileID: 400014, guid: bcf1704da4dcf4ca7be0acf40020b0c4, type: 2}
      propertyPath: m_LocalPosition.x
      value: 0
      objectReference: {fileID: 0}
    - target: {fileID: 400014, guid: bcf1704da4dcf4ca7be0acf40020b0c4, type: 2}
      propertyPath: m_LocalPosition.y
      value: 0
      objectReference: {fileID: 0}
    - target: {fileID: 400014, guid: bcf1704da4dcf4ca7be0acf40020b0c4, type: 2}
      propertyPath: m_LocalPosition.z
      value: 0
      objectReference: {fileID: 0}
    - target: {fileID: 100014, guid: bcf1704da4dcf4ca7be0acf40020b0c4, type: 2}
      propertyPath: m_Name
      value: TapToMove Controls
      objectReference: {fileID: 0}
    m_RemovedComponents: []
  m_ParentPrefab: {fileID: 100100000, guid: bcf1704da4dcf4ca7be0acf40020b0c4, type: 2}
  m_RootGameObject: {fileID: 62}
  m_IsPrefabParent: 0
--- !u!23 &26
MeshRenderer:
  m_ObjectHideFlags: 0
  m_PrefabParentObject: {fileID: 2300000, guid: bcf1704da4dcf4ca7be0acf40020b0c4,
    type: 2}
  m_PrefabInternal: {fileID: 25}
  m_GameObject: {fileID: 66}
  m_Enabled: 1
  m_CastShadows: 1
  m_ReceiveShadows: 1
  m_Materials:
  - {fileID: 10302, guid: 0000000000000000f000000000000000, type: 0}
  m_SubsetIndices: 
  m_StaticBatchRoot: {fileID: 0}
  m_UseLightProbes: 0
  m_ReflectionProbeUsage: 1
  m_ProbeAnchor: {fileID: 0}
  m_ScaleInLightmap: 1
  m_PreserveUVs: 0
  m_IgnoreNormalsForChartDetection: 0
  m_ImportantGI: 0
  m_MinimumChartSize: 4
  m_AutoUVMaxDistance: 0.5
  m_AutoUVMaxAngle: 89
  m_LightmapParameters: {fileID: 0}
  m_SortingLayerID: 0
  m_SortingOrder: 0
--- !u!33 &28
MeshFilter:
  m_ObjectHideFlags: 0
  m_PrefabParentObject: {fileID: 3300000, guid: bcf1704da4dcf4ca7be0acf40020b0c4,
    type: 2}
  m_PrefabInternal: {fileID: 25}
  m_GameObject: {fileID: 66}
  m_Mesh: {fileID: 10208, guid: 0000000000000000e000000000000000, type: 0}
--- !u!81 &30
AudioListener:
  m_ObjectHideFlags: 0
  m_PrefabParentObject: {fileID: 8100000, guid: bcf1704da4dcf4ca7be0acf40020b0c4,
    type: 2}
  m_PrefabInternal: {fileID: 25}
  m_GameObject: {fileID: 64}
  m_Enabled: 1
--- !u!114 &32
MonoBehaviour:
  m_ObjectHideFlags: 0
  m_PrefabParentObject: {fileID: 11400010, guid: bcf1704da4dcf4ca7be0acf40020b0c4,
    type: 2}
  m_PrefabInternal: {fileID: 25}
  m_GameObject: {fileID: 64}
  m_Enabled: 1
  m_EditorHideFlags: 0
  m_Script: {fileID: 11500000, guid: 4eb73708914564698b03178372f5b8ba, type: 3}
  m_Name: 
  m_EditorClassIdentifier: 
  cameraObject: {fileID: 58}
  cameraPivot: {fileID: 55}
  jumpButton: {fileID: 36}
  speed: 6
  jumpSpeed: 16
  inAirMultiplier: 0.25
  minimumDistanceToMove: 2
  minimumTimeUntilMove: 0.25
  zoomEnabled: 1
  zoomEpsilon: 25
  zoomRate: 1.5
  rotateEnabled: 1
  rotateEpsilon: 10
--- !u!143 &34
CharacterController:
  m_ObjectHideFlags: 0
  m_PrefabParentObject: {fileID: 14300000, guid: bcf1704da4dcf4ca7be0acf40020b0c4,
    type: 2}
  m_PrefabInternal: {fileID: 25}
  m_GameObject: {fileID: 64}
  m_Material: {fileID: 0}
  m_IsTrigger: 0
  m_Enabled: 1
  serializedVersion: 2
  m_Height: 2
  m_Radius: 0.5
  m_SlopeLimit: 45
  m_StepOffset: 0.3
  m_SkinWidth: 0.08
  m_MinMoveDistance: 0
  m_Center: {x: 0, y: 1, z: 0}
--- !u!131 &36
GUITexture:
  m_ObjectHideFlags: 0
  m_PrefabParentObject: {fileID: 13100000, guid: bcf1704da4dcf4ca7be0acf40020b0c4,
    type: 2}
  m_PrefabInternal: {fileID: 25}
  m_GameObject: {fileID: 62}
  m_Enabled: 1
  m_Texture: {fileID: 2800000, guid: ab5bb3eb247a4492fa9900f6ac0db050, type: 3}
  m_Color: {r: 0.5, g: 0.5, b: 0.5, a: 0.5}
  m_PixelInset:
    serializedVersion: 2
    x: -50
    y: -50
    width: 100
    height: 100
  m_LeftBorder: 0
  m_RightBorder: 0
  m_TopBorder: 0
  m_BottomBorder: 0
--- !u!4 &38
Transform:
  m_ObjectHideFlags: 0
  m_PrefabParentObject: {fileID: 400008, guid: bcf1704da4dcf4ca7be0acf40020b0c4, type: 2}
  m_PrefabInternal: {fileID: 25}
  m_GameObject: {fileID: 73}
  m_LocalRotation: {x: 0, y: 0, z: 0, w: 1}
  m_LocalPosition: {x: 0, y: 0.7981911, z: 0}
  m_LocalScale: {x: 1, y: 1, z: 1}
  m_Children:
  - {fileID: 48}
  m_Father: {fileID: 55}
  m_RootOrder: 0
--- !u!114 &40
MonoBehaviour:
  m_ObjectHideFlags: 0
  m_PrefabParentObject: {fileID: 11400002, guid: bcf1704da4dcf4ca7be0acf40020b0c4,
    type: 2}
  m_PrefabInternal: {fileID: 25}
  m_GameObject: {fileID: 58}
  m_Enabled: 1
  m_EditorHideFlags: 0
  m_Script: {fileID: 11500000, guid: 01049279b64ae427f91486bbcea77beb, type: 3}
  m_Name: 
  m_EditorClassIdentifier: 
  origin: {fileID: 21}
  zoom: 0
  zoomMin: -5
  zoomMax: 5
  seekTime: 0.5
  smoothZoomIn: 1
--- !u!92 &42
Behaviour:
  m_ObjectHideFlags: 0
  m_PrefabParentObject: {fileID: 9200000, guid: bcf1704da4dcf4ca7be0acf40020b0c4,
    type: 2}
  m_PrefabInternal: {fileID: 25}
  m_GameObject: {fileID: 58}
  m_Enabled: 1
--- !u!124 &44
Behaviour:
  m_ObjectHideFlags: 0
  m_PrefabParentObject: {fileID: 12400000, guid: bcf1704da4dcf4ca7be0acf40020b0c4,
    type: 2}
  m_PrefabInternal: {fileID: 25}
  m_GameObject: {fileID: 58}
  m_Enabled: 1
--- !u!20 &46
Camera:
  m_ObjectHideFlags: 0
  m_PrefabParentObject: {fileID: 2000000, guid: bcf1704da4dcf4ca7be0acf40020b0c4,
    type: 2}
  m_PrefabInternal: {fileID: 25}
  m_GameObject: {fileID: 58}
  m_Enabled: 1
  serializedVersion: 2
  m_ClearFlags: 1
  m_BackGroundColor: {r: 0, g: 0, b: 0, a: 0.019607844}
  m_NormalizedViewPortRect:
    serializedVersion: 2
    x: 0
    y: 0
    width: 1
    height: 1
  near clip plane: 0.3
  far clip plane: 2000
  field of view: 60
  orthographic: 0
  orthographic size: 100
  m_Depth: 0
  m_CullingMask:
    serializedVersion: 2
    m_Bits: 4294967295
  m_RenderingPath: -1
  m_TargetTexture: {fileID: 0}
  m_TargetDisplay: 0
  m_TargetEye: 3
  m_HDR: 0
  m_OcclusionCulling: 1
  m_StereoConvergence: 10
  m_StereoSeparation: 0.022
  m_StereoMirrorMode: 0
--- !u!4 &48
Transform:
  m_ObjectHideFlags: 0
  m_PrefabParentObject: {fileID: 400010, guid: bcf1704da4dcf4ca7be0acf40020b0c4, type: 2}
  m_PrefabInternal: {fileID: 25}
  m_GameObject: {fileID: 58}
  m_LocalRotation: {x: 0.5, y: 0, z: 0, w: 0.8660254}
  m_LocalPosition: {x: 0, y: 8.436759, z: -5}
  m_LocalScale: {x: 0.9999998, y: 0.9999995, z: 0.9999998}
  m_Children: []
  m_Father: {fileID: 38}
  m_RootOrder: 0
--- !u!4 &51
Transform:
  m_ObjectHideFlags: 0
  m_PrefabParentObject: {fileID: 400000, guid: bcf1704da4dcf4ca7be0acf40020b0c4, type: 2}
  m_PrefabInternal: {fileID: 25}
  m_GameObject: {fileID: 66}
  m_LocalRotation: {x: 0, y: -0.981795, z: 0, w: 0.18994375}
  m_LocalPosition: {x: 0, y: 1, z: 0}
  m_LocalScale: {x: 0.9999999, y: 1, z: 0.99999976}
  m_Children: []
  m_Father: {fileID: 21}
  m_RootOrder: 0
--- !u!4 &55
Transform:
  m_ObjectHideFlags: 0
  m_PrefabParentObject: {fileID: 400006, guid: bcf1704da4dcf4ca7be0acf40020b0c4, type: 2}
  m_PrefabInternal: {fileID: 25}
  m_GameObject: {fileID: 19}
  m_LocalRotation: {x: 0, y: 0, z: 0, w: 1}
  m_LocalPosition: {x: 0, y: 0, z: 0}
  m_LocalScale: {x: 1, y: 1, z: 1}
  m_Children:
  - {fileID: 38}
  m_Father: {fileID: 22}
  m_RootOrder: 0
--- !u!1 &58
GameObject:
  m_ObjectHideFlags: 0
  m_PrefabParentObject: {fileID: 100010, guid: bcf1704da4dcf4ca7be0acf40020b0c4, type: 2}
  m_PrefabInternal: {fileID: 25}
  serializedVersion: 4
  m_Component:
  - 4: {fileID: 48}
  - 20: {fileID: 46}
  - 124: {fileID: 44}
  - 92: {fileID: 42}
  - 114: {fileID: 40}
  m_Layer: 0
  m_Name: Camera
  m_TagString: Untagged
  m_Icon: {fileID: 0}
  m_NavMeshLayer: 0
  m_StaticEditorFlags: 0
  m_IsActive: 1
--- !u!1 &60
GameObject:
  m_ObjectHideFlags: 0
  m_PrefabParentObject: {fileID: 100014, guid: bcf1704da4dcf4ca7be0acf40020b0c4, type: 2}
  m_PrefabInternal: {fileID: 25}
  serializedVersion: 4
  m_Component:
  - 4: {fileID: 22}
  m_Layer: 0
  m_Name: TapToMove Controls
  m_TagString: Untagged
  m_Icon: {fileID: 0}
  m_NavMeshLayer: 0
  m_StaticEditorFlags: 0
  m_IsActive: 1
--- !u!1 &62
GameObject:
  m_ObjectHideFlags: 0
  m_PrefabParentObject: {fileID: 100004, guid: bcf1704da4dcf4ca7be0acf40020b0c4, type: 2}
  m_PrefabInternal: {fileID: 25}
  serializedVersion: 4
  m_Component:
  - 4: {fileID: 23}
  - 131: {fileID: 36}
  m_Layer: 0
  m_Name: TapToMove Controls
  m_TagString: Untagged
  m_Icon: {fileID: 0}
  m_NavMeshLayer: 0
  m_StaticEditorFlags: 0
  m_IsActive: 1
--- !u!1 &64
GameObject:
  m_ObjectHideFlags: 0
  m_PrefabParentObject: {fileID: 100012, guid: bcf1704da4dcf4ca7be0acf40020b0c4, type: 2}
  m_PrefabInternal: {fileID: 25}
  serializedVersion: 4
  m_Component:
  - 4: {fileID: 21}
  - 143: {fileID: 34}
  - 114: {fileID: 32}
  - 81: {fileID: 30}
  m_Layer: 8
  m_Name: Player
  m_TagString: Player
  m_Icon: {fileID: 0}
  m_NavMeshLayer: 0
  m_StaticEditorFlags: 0
  m_IsActive: 1
--- !u!1 &66
GameObject:
  m_ObjectHideFlags: 0
  m_PrefabParentObject: {fileID: 100000, guid: bcf1704da4dcf4ca7be0acf40020b0c4, type: 2}
  m_PrefabInternal: {fileID: 25}
  serializedVersion: 4
  m_Component:
  - 4: {fileID: 51}
  - 33: {fileID: 28}
  - 23: {fileID: 26}
  m_Layer: 0
  m_Name: Capsule
  m_TagString: Untagged
  m_Icon: {fileID: 0}
  m_NavMeshLayer: 0
  m_StaticEditorFlags: 0
  m_IsActive: 1
--- !u!1 &68
GameObject:
  m_ObjectHideFlags: 0
  m_PrefabParentObject: {fileID: 0}
  m_PrefabInternal: {fileID: 0}
  serializedVersion: 4
  m_Component:
  - 4: {fileID: 72}
  - 33: {fileID: 71}
  - 64: {fileID: 70}
  - 23: {fileID: 69}
  m_Layer: 0
  m_Name: Plane
  m_TagString: Untagged
  m_Icon: {fileID: 0}
  m_NavMeshLayer: 0
  m_StaticEditorFlags: 0
  m_IsActive: 1
--- !u!23 &69
MeshRenderer:
  m_ObjectHideFlags: 0
  m_PrefabParentObject: {fileID: 0}
  m_PrefabInternal: {fileID: 0}
  m_GameObject: {fileID: 68}
  m_Enabled: 1
  m_CastShadows: 1
  m_ReceiveShadows: 1
  m_Materials:
  - {fileID: 2100000, guid: 5317f3e76581f4165b16ede5caa5f14b, type: 2}
  m_SubsetIndices: 
  m_StaticBatchRoot: {fileID: 0}
  m_UseLightProbes: 1
  m_ReflectionProbeUsage: 1
  m_ProbeAnchor: {fileID: 0}
  m_ScaleInLightmap: 1
  m_PreserveUVs: 0
  m_IgnoreNormalsForChartDetection: 0
  m_ImportantGI: 0
  m_MinimumChartSize: 4
  m_AutoUVMaxDistance: 0.5
  m_AutoUVMaxAngle: 89
  m_LightmapParameters: {fileID: 0}
  m_SortingLayerID: 0
  m_SortingOrder: 0
--- !u!64 &70
MeshCollider:
  m_ObjectHideFlags: 0
  m_PrefabParentObject: {fileID: 0}
  m_PrefabInternal: {fileID: 0}
  m_GameObject: {fileID: 68}
  m_Material: {fileID: 0}
  m_IsTrigger: 0
  m_Enabled: 1
  serializedVersion: 2
  m_Convex: 0
  m_Mesh: {fileID: 10209, guid: 0000000000000000e000000000000000, type: 0}
--- !u!33 &71
MeshFilter:
  m_ObjectHideFlags: 0
  m_PrefabParentObject: {fileID: 0}
  m_PrefabInternal: {fileID: 0}
  m_GameObject: {fileID: 68}
  m_Mesh: {fileID: 10209, guid: 0000000000000000e000000000000000, type: 0}
--- !u!4 &72
Transform:
  m_ObjectHideFlags: 0
  m_PrefabParentObject: {fileID: 0}
  m_PrefabInternal: {fileID: 0}
  m_GameObject: {fileID: 68}
  m_LocalRotation: {x: 0, y: 0, z: 0, w: 1}
  m_LocalPosition: {x: 0, y: 0, z: 0}
  m_LocalScale: {x: 10, y: 10, z: 10}
  m_Children: []
  m_Father: {fileID: 0}
  m_RootOrder: 0
--- !u!1 &73
GameObject:
  m_ObjectHideFlags: 0
  m_PrefabParentObject: {fileID: 100008, guid: bcf1704da4dcf4ca7be0acf40020b0c4, type: 2}
  m_PrefabInternal: {fileID: 25}
  serializedVersion: 4
  m_Component:
  - 4: {fileID: 38}
  m_Layer: 0
  m_Name: CameraOffset
  m_TagString: Untagged
  m_Icon: {fileID: 0}
  m_NavMeshLayer: 0
  m_StaticEditorFlags: 0
  m_IsActive: 1
