%YAML 1.1
%TAG !u! tag:unity3d.com,2011:
--- !u!29 &1
SceneSettings:
  m_ObjectHideFlags: 0
  m_PVSData: 
  m_PVSObjectsArray: []
  m_PVSPortalsArray: []
  m_OcclusionBakeSettings:
    smallestOccluder: 5
    smallestHole: 0.25
    backfaceThreshold: 100
--- !u!104 &2
RenderSettings:
  m_ObjectHideFlags: 0
  serializedVersion: 6
  m_Fog: 0
  m_FogColor: {r: 0.9143406, g: 0.9680967, b: 0.99215686, a: 1}
  m_FogMode: 2
  m_FogDensity: 0.0004
  m_LinearFogStart: 0
  m_LinearFogEnd: 300
  m_AmbientSkyColor: {r: 0, g: 0, b: 0, a: 1}
  m_AmbientEquatorColor: {r: 0, g: 0, b: 0, a: 1}
  m_AmbientGroundColor: {r: 0, g: 0, b: 0, a: 1}
  m_AmbientIntensity: 1
  m_AmbientMode: 3
  m_SkyboxMaterial: {fileID: 0}
  m_HaloStrength: 0
  m_FlareStrength: 1
  m_FlareFadeSpeed: 3
  m_HaloTexture: {fileID: 0}
  m_SpotCookie: {fileID: 10001, guid: 0000000000000000e000000000000000, type: 0}
  m_DefaultReflectionMode: 0
  m_DefaultReflectionResolution: 128
  m_ReflectionBounces: 1
  m_ReflectionIntensity: 1
  m_CustomReflection: {fileID: 0}
  m_Sun: {fileID: 0}
--- !u!157 &4
LightmapSettings:
  m_ObjectHideFlags: 0
  serializedVersion: 6
  m_GIWorkflowMode: 1
  m_LightmapsMode: 1
  m_GISettings:
    serializedVersion: 2
    m_BounceScale: 1
    m_IndirectOutputScale: 1
    m_AlbedoBoost: 1
    m_TemporalCoherenceThreshold: 1
    m_EnvironmentLightingMode: 0
    m_EnableBakedLightmaps: 1
    m_EnableRealtimeLightmaps: 0
  m_LightmapEditorSettings:
    serializedVersion: 3
    m_Resolution: 1
    m_BakeResolution: 50
    m_TextureWidth: 1024
    m_TextureHeight: 1024
    m_AOMaxDistance: 1
    m_Padding: 2
    m_CompAOExponent: 0
    m_LightmapParameters: {fileID: 0}
    m_TextureCompression: 0
    m_FinalGather: 0
    m_FinalGatherRayCount: 1024
    m_ReflectionCompression: 2
  m_LightingDataAsset: {fileID: 0}
  m_RuntimeCPUUsage: 25
--- !u!196 &5
NavMeshSettings:
  serializedVersion: 2
  m_ObjectHideFlags: 0
  m_BuildSettings:
    serializedVersion: 2
    agentRadius: 0.5
    agentHeight: 2
    agentSlope: 45
    agentClimb: 0.4
    ledgeDropHeight: 0
    maxJumpAcrossDistance: 0
    accuratePlacement: 0
    minRegionArea: 2
    cellSize: 0.16666666
    manualCellSize: 0
  m_NavMeshData: {fileID: 0}
--- !u!1 &46725056
GameObject:
  m_ObjectHideFlags: 0
  m_PrefabParentObject: {fileID: 0}
  m_PrefabInternal: {fileID: 0}
  serializedVersion: 4
  m_Component:
  - 4: {fileID: 46725057}
  m_Layer: 0
  m_Name: placeholders
  m_TagString: Untagged
  m_Icon: {fileID: 0}
  m_NavMeshLayer: 0
  m_StaticEditorFlags: 0
  m_IsActive: 1
--- !u!4 &46725057
Transform:
  m_ObjectHideFlags: 0
  m_PrefabParentObject: {fileID: 0}
  m_PrefabInternal: {fileID: 0}
  m_GameObject: {fileID: 46725056}
  m_LocalRotation: {x: 0, y: 0, z: 0, w: 1}
  m_LocalPosition: {x: 44.158813, y: 96.74513, z: 24.343018}
  m_LocalScale: {x: 1, y: 1, z: 1}
  m_Children:
  - {fileID: 1749414560}
  - {fileID: 719934079}
  m_Father: {fileID: 0}
  m_RootOrder: 3
--- !u!1001 &57211269
Prefab:
  m_ObjectHideFlags: 0
  serializedVersion: 2
  m_Modification:
    m_TransformParent: {fileID: 187407454}
    m_Modifications:
    - target: {fileID: 400000, guid: 7744aed91c030e242bbadd090dfe4bf9, type: 3}
      propertyPath: m_LocalPosition.x
      value: -465.044312
      objectReference: {fileID: 0}
    - target: {fileID: 400000, guid: 7744aed91c030e242bbadd090dfe4bf9, type: 3}
      propertyPath: m_LocalPosition.y
      value: -.691795707
      objectReference: {fileID: 0}
    - target: {fileID: 400000, guid: 7744aed91c030e242bbadd090dfe4bf9, type: 3}
      propertyPath: m_LocalPosition.z
      value: 61.2600212
      objectReference: {fileID: 0}
    - target: {fileID: 400000, guid: 7744aed91c030e242bbadd090dfe4bf9, type: 3}
      propertyPath: m_LocalRotation.x
      value: .0137173478
      objectReference: {fileID: 0}
    - target: {fileID: 400000, guid: 7744aed91c030e242bbadd090dfe4bf9, type: 3}
      propertyPath: m_LocalRotation.y
      value: -.743774712
      objectReference: {fileID: 0}
    - target: {fileID: 400000, guid: 7744aed91c030e242bbadd090dfe4bf9, type: 3}
      propertyPath: m_LocalRotation.z
      value: -.0414489135
      objectReference: {fileID: 0}
    - target: {fileID: 400000, guid: 7744aed91c030e242bbadd090dfe4bf9, type: 3}
      propertyPath: m_LocalRotation.w
      value: .667003095
      objectReference: {fileID: 0}
    m_RemovedComponents: []
  m_ParentPrefab: {fileID: 100100000, guid: 7744aed91c030e242bbadd090dfe4bf9, type: 3}
  m_RootGameObject: {fileID: 1870656308}
  m_IsPrefabParent: 0
--- !u!1001 &151607927
Prefab:
  m_ObjectHideFlags: 0
  serializedVersion: 2
  m_Modification:
    m_TransformParent: {fileID: 187407454}
    m_Modifications:
    - target: {fileID: 400000, guid: acf4a52340d407e45a44ee80f0bffe16, type: 3}
      propertyPath: m_LocalPosition.x
      value: -456.08139
      objectReference: {fileID: 0}
    - target: {fileID: 400000, guid: acf4a52340d407e45a44ee80f0bffe16, type: 3}
      propertyPath: m_LocalPosition.y
      value: -.691795707
      objectReference: {fileID: 0}
    - target: {fileID: 400000, guid: acf4a52340d407e45a44ee80f0bffe16, type: 3}
      propertyPath: m_LocalPosition.z
      value: 61.2600212
      objectReference: {fileID: 0}
    - target: {fileID: 400000, guid: acf4a52340d407e45a44ee80f0bffe16, type: 3}
      propertyPath: m_LocalRotation.x
      value: .0137173478
      objectReference: {fileID: 0}
    - target: {fileID: 400000, guid: acf4a52340d407e45a44ee80f0bffe16, type: 3}
      propertyPath: m_LocalRotation.y
      value: -.743774712
      objectReference: {fileID: 0}
    - target: {fileID: 400000, guid: acf4a52340d407e45a44ee80f0bffe16, type: 3}
      propertyPath: m_LocalRotation.z
      value: -.0414489135
      objectReference: {fileID: 0}
    - target: {fileID: 400000, guid: acf4a52340d407e45a44ee80f0bffe16, type: 3}
      propertyPath: m_LocalRotation.w
      value: .667003095
      objectReference: {fileID: 0}
    m_RemovedComponents: []
  m_ParentPrefab: {fileID: 100100000, guid: acf4a52340d407e45a44ee80f0bffe16, type: 3}
  m_RootGameObject: {fileID: 2141409360}
  m_IsPrefabParent: 0
--- !u!1 &187407453
GameObject:
  m_ObjectHideFlags: 0
  m_PrefabParentObject: {fileID: 0}
  m_PrefabInternal: {fileID: 0}
  serializedVersion: 4
  m_Component:
  - 4: {fileID: 187407454}
  m_Layer: 0
  m_Name: effects
  m_TagString: Untagged
  m_Icon: {fileID: 0}
  m_NavMeshLayer: 0
  m_StaticEditorFlags: 0
  m_IsActive: 1
--- !u!4 &187407454
Transform:
  m_ObjectHideFlags: 0
  m_PrefabParentObject: {fileID: 0}
  m_PrefabInternal: {fileID: 0}
  m_GameObject: {fileID: 187407453}
  m_LocalRotation: {x: 0, y: 0, z: 0, w: 1}
  m_LocalPosition: {x: 0, y: 0, z: 0}
  m_LocalScale: {x: 1, y: 1, z: 1}
  m_Children:
  - {fileID: 1870656309}
  - {fileID: 2141409361}
  - {fileID: 1338761461}
  - {fileID: 1211278766}
  m_Father: {fileID: 0}
  m_RootOrder: 1
--- !u!1001 &221725233
Prefab:
  m_ObjectHideFlags: 0
  serializedVersion: 2
  m_Modification:
    m_TransformParent: {fileID: 187407454}
    m_Modifications:
    - target: {fileID: 400000, guid: 5451ebadd01b66d4c9ecaef765e74d3f, type: 3}
      propertyPath: m_LocalPosition.x
      value: -447.457764
      objectReference: {fileID: 0}
    - target: {fileID: 400000, guid: 5451ebadd01b66d4c9ecaef765e74d3f, type: 3}
      propertyPath: m_LocalPosition.y
      value: -.691795707
      objectReference: {fileID: 0}
    - target: {fileID: 400000, guid: 5451ebadd01b66d4c9ecaef765e74d3f, type: 3}
      propertyPath: m_LocalPosition.z
      value: 54.7484741
      objectReference: {fileID: 0}
    - target: {fileID: 400000, guid: 5451ebadd01b66d4c9ecaef765e74d3f, type: 3}
      propertyPath: m_LocalRotation.x
      value: -.0238993131
      objectReference: {fileID: 0}
    - target: {fileID: 400000, guid: 5451ebadd01b66d4c9ecaef765e74d3f, type: 3}
      propertyPath: m_LocalRotation.y
      value: -.744928539
      objectReference: {fileID: 0}
    - target: {fileID: 400000, guid: 5451ebadd01b66d4c9ecaef765e74d3f, type: 3}
      propertyPath: m_LocalRotation.z
      value: .000538978551
      objectReference: {fileID: 0}
    - target: {fileID: 400000, guid: 5451ebadd01b66d4c9ecaef765e74d3f, type: 3}
      propertyPath: m_LocalRotation.w
      value: .66671592
      objectReference: {fileID: 0}
    m_RemovedComponents: []
  m_ParentPrefab: {fileID: 100100000, guid: 5451ebadd01b66d4c9ecaef765e74d3f, type: 3}
  m_RootGameObject: {fileID: 1338761456}
  m_IsPrefabParent: 0
--- !u!1 &389818464
GameObject:
  m_ObjectHideFlags: 0
  m_PrefabParentObject: {fileID: 100004, guid: 9d4133d5d30b644bd87802a347eaccbe, type: 2}
  m_PrefabInternal: {fileID: 0}
  serializedVersion: 4
  m_Component:
  - 4: {fileID: 389818465}
  - 20: {fileID: 389818473}
  - 92: {fileID: 389818472}
  - 124: {fileID: 389818471}
  - 114: {fileID: 389818470}
  - 81: {fileID: 389818469}
  - 131: {fileID: 389818468}
  m_Layer: 0
  m_Name: Main Camera
  m_TagString: MainCamera
  m_Icon: {fileID: 0}
  m_NavMeshLayer: 0
  m_StaticEditorFlags: 0
  m_IsActive: 1
--- !u!4 &389818465
Transform:
  m_ObjectHideFlags: 0
  m_PrefabParentObject: {fileID: 400004, guid: 9d4133d5d30b644bd87802a347eaccbe, type: 2}
  m_PrefabInternal: {fileID: 0}
  m_GameObject: {fileID: 389818464}
  m_LocalRotation: {x: 0, y: 0, z: 0, w: 1}
  m_LocalPosition: {x: 0, y: 0.62, z: 0}
  m_LocalScale: {x: 1, y: 1, z: 1}
  m_Children: []
  m_Father: {fileID: 1749414560}
  m_RootOrder: 1
--- !u!131 &389818468
GUITexture:
  m_ObjectHideFlags: 0
  m_PrefabParentObject: {fileID: 0}
  m_PrefabInternal: {fileID: 0}
  m_GameObject: {fileID: 389818464}
  m_Enabled: 1
  m_Texture: {fileID: 0}
  m_Color: {r: 0.5, g: 0.5, b: 0.5, a: 0.5}
  m_PixelInset:
    serializedVersion: 2
    x: 0
    y: 0
    width: 0
    height: 0
  m_LeftBorder: 0
  m_RightBorder: 0
  m_TopBorder: 0
  m_BottomBorder: 0
--- !u!81 &389818469
AudioListener:
  m_ObjectHideFlags: 0
  m_PrefabParentObject: {fileID: 8100000, guid: 9d4133d5d30b644bd87802a347eaccbe,
    type: 2}
  m_PrefabInternal: {fileID: 0}
  m_GameObject: {fileID: 389818464}
  m_Enabled: 1
--- !u!114 &389818470
MonoBehaviour:
  m_ObjectHideFlags: 0
  m_PrefabParentObject: {fileID: 11400006, guid: 9d4133d5d30b644bd87802a347eaccbe,
    type: 2}
  m_PrefabInternal: {fileID: 0}
  m_GameObject: {fileID: 389818464}
  m_Enabled: 1
  m_EditorHideFlags: 0
  m_Script: {fileID: 11500000, guid: 68ec2fe99d1108b9d0006a298d76c639, type: 3}
  m_Name: 
  m_EditorClassIdentifier: 
  axes: 2
  sensitivityX: 4
  sensitivityY: 4
  minimumX: 0
  maximumX: 360
  minimumY: -60
  maximumY: 60
--- !u!124 &389818471
Behaviour:
  m_ObjectHideFlags: 0
  m_PrefabParentObject: {fileID: 12400000, guid: 9d4133d5d30b644bd87802a347eaccbe,
    type: 2}
  m_PrefabInternal: {fileID: 0}
  m_GameObject: {fileID: 389818464}
  m_Enabled: 1
--- !u!92 &389818472
Behaviour:
  m_ObjectHideFlags: 0
  m_PrefabParentObject: {fileID: 9200000, guid: 9d4133d5d30b644bd87802a347eaccbe,
    type: 2}
  m_PrefabInternal: {fileID: 0}
  m_GameObject: {fileID: 389818464}
  m_Enabled: 1
--- !u!20 &389818473
Camera:
  m_ObjectHideFlags: 0
  m_PrefabParentObject: {fileID: 2000000, guid: 9d4133d5d30b644bd87802a347eaccbe,
    type: 2}
  m_PrefabInternal: {fileID: 0}
  m_GameObject: {fileID: 389818464}
  m_Enabled: 1
  serializedVersion: 2
  m_ClearFlags: 2
  m_BackGroundColor: {r: 0.21822377, g: 0.24084203, b: 0.25882354, a: 1}
  m_NormalizedViewPortRect:
    serializedVersion: 2
    x: 0
    y: 0
    width: 1
    height: 1
  near clip plane: 0.05
  far clip plane: 3500
  field of view: 54
  orthographic: 0
  orthographic size: 100
  m_Depth: 0
  m_CullingMask:
    serializedVersion: 2
    m_Bits: 4294967039
  m_RenderingPath: -1
  m_TargetTexture: {fileID: 0}
  m_TargetDisplay: 0
  m_TargetEye: 3
  m_HDR: 0
  m_OcclusionCulling: 1
  m_StereoConvergence: 10
  m_StereoSeparation: 0.022
  m_StereoMirrorMode: 0
--- !u!1 &719934075
GameObject:
  m_ObjectHideFlags: 0
  m_PrefabParentObject: {fileID: 0}
  m_PrefabInternal: {fileID: 0}
  serializedVersion: 4
  m_Component:
  - 4: {fileID: 719934079}
  - 33: {fileID: 719934078}
  - 23: {fileID: 719934076}
  - 64: {fileID: 719934077}
  m_Layer: 0
  m_Name: Plane
  m_TagString: Untagged
  m_Icon: {fileID: 0}
  m_NavMeshLayer: 0
  m_StaticEditorFlags: 0
  m_IsActive: 1
--- !u!23 &719934076
MeshRenderer:
  m_ObjectHideFlags: 0
  m_PrefabParentObject: {fileID: 0}
  m_PrefabInternal: {fileID: 0}
  m_GameObject: {fileID: 719934075}
  m_Enabled: 1
  m_CastShadows: 1
  m_ReceiveShadows: 1
  m_Materials:
  - {fileID: 2100000, guid: b1e78a6ccf13b474eb7f9a9df724acc1, type: 2}
  m_SubsetIndices: 
  m_StaticBatchRoot: {fileID: 0}
  m_UseLightProbes: 0
  m_ReflectionProbeUsage: 1
  m_ProbeAnchor: {fileID: 0}
  m_ScaleInLightmap: 1
  m_PreserveUVs: 0
  m_IgnoreNormalsForChartDetection: 0
  m_ImportantGI: 0
  m_MinimumChartSize: 4
  m_AutoUVMaxDistance: 0.5
  m_AutoUVMaxAngle: 89
  m_LightmapParameters: {fileID: 0}
  m_SortingLayerID: 0
  m_SortingOrder: 0
--- !u!64 &719934077
MeshCollider:
  m_ObjectHideFlags: 0
  m_PrefabParentObject: {fileID: 0}
  m_PrefabInternal: {fileID: 0}
  m_GameObject: {fileID: 719934075}
  m_Material: {fileID: 0}
  m_IsTrigger: 0
  m_Enabled: 1
  serializedVersion: 2
  m_Convex: 0
  m_Mesh: {fileID: 10209, guid: 0000000000000000e000000000000000, type: 0}
--- !u!33 &719934078
MeshFilter:
  m_ObjectHideFlags: 0
  m_PrefabParentObject: {fileID: 0}
  m_PrefabInternal: {fileID: 0}
  m_GameObject: {fileID: 719934075}
  m_Mesh: {fileID: 10209, guid: 0000000000000000e000000000000000, type: 0}
--- !u!4 &719934079
Transform:
  m_ObjectHideFlags: 0
  m_PrefabParentObject: {fileID: 0}
  m_PrefabInternal: {fileID: 0}
  m_GameObject: {fileID: 719934075}
  m_LocalRotation: {x: 0, y: 0, z: 0, w: 1}
  m_LocalPosition: {x: -26.338463, y: -96.74513, z: -1.7807541}
  m_LocalScale: {x: 83.86329, y: 83.86329, z: 83.86329}
  m_Children: []
  m_Father: {fileID: 46725057}
  m_RootOrder: 1
--- !u!1 &793696548
GameObject:
  m_ObjectHideFlags: 0
  m_PrefabParentObject: {fileID: 100000, guid: b920d9752f360a74f9532c50a2e18d6a, type: 3}
  m_PrefabInternal: {fileID: 2141810604}
  serializedVersion: 4
  m_Component:
  - 4: {fileID: 793696551}
  - 33: {fileID: 793696550}
  - 23: {fileID: 793696549}
  m_Layer: 0
  m_Name: room_05_pack_environment_day
  m_TagString: Untagged
  m_Icon: {fileID: 0}
  m_NavMeshLayer: 0
  m_StaticEditorFlags: 0
  m_IsActive: 1
--- !u!23 &793696549
MeshRenderer:
  m_ObjectHideFlags: 0
  m_PrefabParentObject: {fileID: 2300000, guid: b920d9752f360a74f9532c50a2e18d6a,
    type: 3}
  m_PrefabInternal: {fileID: 2141810604}
  m_GameObject: {fileID: 793696548}
  m_Enabled: 1
  m_CastShadows: 1
  m_ReceiveShadows: 1
  m_Materials:
  - {fileID: 2100000, guid: 176210493c798294ab089e64d60d0f67, type: 2}
  m_SubsetIndices: 
  m_StaticBatchRoot: {fileID: 0}
  m_UseLightProbes: 1
  m_ReflectionProbeUsage: 1
  m_ProbeAnchor: {fileID: 0}
  m_ScaleInLightmap: 1
  m_PreserveUVs: 0
  m_IgnoreNormalsForChartDetection: 0
  m_ImportantGI: 0
  m_MinimumChartSize: 4
  m_AutoUVMaxDistance: 0.5
  m_AutoUVMaxAngle: 89
  m_LightmapParameters: {fileID: 0}
  m_SortingLayerID: 0
  m_SortingOrder: 0
--- !u!33 &793696550
MeshFilter:
  m_ObjectHideFlags: 0
  m_PrefabParentObject: {fileID: 3300000, guid: b920d9752f360a74f9532c50a2e18d6a,
    type: 3}
  m_PrefabInternal: {fileID: 2141810604}
  m_GameObject: {fileID: 793696548}
  m_Mesh: {fileID: 4300000, guid: b920d9752f360a74f9532c50a2e18d6a, type: 3}
--- !u!4 &793696551
Transform:
  m_ObjectHideFlags: 0
  m_PrefabParentObject: {fileID: 400000, guid: b920d9752f360a74f9532c50a2e18d6a, type: 3}
  m_PrefabInternal: {fileID: 2141810604}
  m_GameObject: {fileID: 793696548}
  m_LocalRotation: {x: 0, y: -0, z: -0, w: 1}
  m_LocalPosition: {x: -0, y: 0, z: 0}
  m_LocalScale: {x: 1, y: 1, z: 1}
  m_Children: []
  m_Father: {fileID: 0}
  m_RootOrder: 0
--- !u!1 &901542756
GameObject:
  m_ObjectHideFlags: 0
  m_PrefabParentObject: {fileID: 0}
  m_PrefabInternal: {fileID: 0}
  serializedVersion: 4
  m_Component:
  - 4: {fileID: 901542757}
  m_Layer: 0
  m_Name: audio
  m_TagString: Untagged
  m_Icon: {fileID: 0}
  m_NavMeshLayer: 0
  m_StaticEditorFlags: 0
  m_IsActive: 1
--- !u!4 &901542757
Transform:
  m_ObjectHideFlags: 0
  m_PrefabParentObject: {fileID: 0}
  m_PrefabInternal: {fileID: 0}
  m_GameObject: {fileID: 901542756}
  m_LocalRotation: {x: 0, y: 0, z: 0, w: 1}
  m_LocalPosition: {x: 6.5519714, y: 3.0245762, z: 3.7621021}
  m_LocalScale: {x: 1, y: 1, z: 1}
  m_Children:
  - {fileID: 1678904018}
  m_Father: {fileID: 0}
  m_RootOrder: 2
--- !u!1 &1165738334
GameObject:
  m_ObjectHideFlags: 0
  m_PrefabParentObject: {fileID: 100000, guid: 9d4133d5d30b644bd87802a347eaccbe, type: 2}
  m_PrefabInternal: {fileID: 0}
  serializedVersion: 4
  m_Component:
  - 4: {fileID: 1165738335}
  - 33: {fileID: 1165738337}
  - 23: {fileID: 1165738336}
  m_Layer: 0
  m_Name: Graphics
  m_TagString: Untagged
  m_Icon: {fileID: 0}
  m_NavMeshLayer: 0
  m_StaticEditorFlags: 0
  m_IsActive: 1
--- !u!4 &1165738335
Transform:
  m_ObjectHideFlags: 0
  m_PrefabParentObject: {fileID: 400000, guid: 9d4133d5d30b644bd87802a347eaccbe, type: 2}
  m_PrefabInternal: {fileID: 0}
  m_GameObject: {fileID: 1165738334}
  m_LocalRotation: {x: -0, y: 0, z: 0, w: 1}
  m_LocalPosition: {x: 0, y: 0, z: 0}
  m_LocalScale: {x: 0.4, y: 0.5, z: 0.4}
  m_Children: []
  m_Father: {fileID: 1749414560}
  m_RootOrder: 0
--- !u!23 &1165738336
MeshRenderer:
  m_ObjectHideFlags: 0
  m_PrefabParentObject: {fileID: 2300000, guid: 9d4133d5d30b644bd87802a347eaccbe,
    type: 2}
  m_PrefabInternal: {fileID: 0}
  m_GameObject: {fileID: 1165738334}
  m_Enabled: 0
  m_CastShadows: 0
  m_ReceiveShadows: 0
  m_Materials:
  - {fileID: 10302, guid: 0000000000000000f000000000000000, type: 0}
  m_SubsetIndices: 
  m_StaticBatchRoot: {fileID: 0}
  m_UseLightProbes: 0
  m_ReflectionProbeUsage: 1
  m_ProbeAnchor: {fileID: 0}
  m_ScaleInLightmap: 1
  m_PreserveUVs: 0
  m_IgnoreNormalsForChartDetection: 0
  m_ImportantGI: 0
  m_MinimumChartSize: 4
  m_AutoUVMaxDistance: 0.5
  m_AutoUVMaxAngle: 89
  m_LightmapParameters: {fileID: 0}
  m_SortingLayerID: 0
  m_SortingOrder: 0
--- !u!33 &1165738337
MeshFilter:
  m_ObjectHideFlags: 0
  m_PrefabParentObject: {fileID: 3300000, guid: 9d4133d5d30b644bd87802a347eaccbe,
    type: 2}
  m_PrefabInternal: {fileID: 0}
  m_GameObject: {fileID: 1165738334}
  m_Mesh: {fileID: 10205, guid: 0000000000000000e000000000000000, type: 0}
--- !u!1 &1211278765
GameObject:
  m_ObjectHideFlags: 0
  m_PrefabParentObject: {fileID: 100000, guid: f83caac319aea834b9187d2bb875bd28, type: 3}
  m_PrefabInternal: {fileID: 1825951098}
  serializedVersion: 4
  m_Component:
  - 4: {fileID: 1211278766}
  - 33: {fileID: 1211278770}
  - 23: {fileID: 1211278769}
  - 111: {fileID: 1211278768}
  - 114: {fileID: 1211278767}
  m_Layer: 0
  m_Name: room5_bird_4_day
  m_TagString: Untagged
  m_Icon: {fileID: 0}
  m_NavMeshLayer: 0
  m_StaticEditorFlags: 0
  m_IsActive: 1
--- !u!4 &1211278766
Transform:
  m_ObjectHideFlags: 0
  m_PrefabParentObject: {fileID: 400000, guid: f83caac319aea834b9187d2bb875bd28, type: 3}
  m_PrefabInternal: {fileID: 1825951098}
  m_GameObject: {fileID: 1211278765}
  m_LocalRotation: {x: 0.013717348, y: -0.7437747, z: -0.041448914, w: 0.6670031}
  m_LocalPosition: {x: -459.842, y: -0.69254583, z: 58.99941}
  m_LocalScale: {x: 5, y: 5, z: 5}
  m_Children: []
  m_Father: {fileID: 187407454}
  m_RootOrder: 3
--- !u!114 &1211278767
MonoBehaviour:
  m_ObjectHideFlags: 0
  m_PrefabParentObject: {fileID: 0}
  m_PrefabInternal: {fileID: 0}
  m_GameObject: {fileID: 1211278765}
  m_Enabled: 1
  m_EditorHideFlags: 0
  m_Script: {fileID: 11500000, guid: 91963b95d61a68444ba594c61aee3deb, type: 3}
  m_Name: 
  m_EditorClassIdentifier: 
  uvAnimationTileX: 6
  uvAnimationTileY: 1
  framesPerSecond: 17
--- !u!111 &1211278768
Animation:
  m_ObjectHideFlags: 0
  m_PrefabParentObject: {fileID: 11100000, guid: f83caac319aea834b9187d2bb875bd28,
    type: 3}
  m_PrefabInternal: {fileID: 1825951098}
  m_GameObject: {fileID: 1211278765}
  m_Enabled: 1
  serializedVersion: 3
  m_Animation: {fileID: 7400000, guid: f83caac319aea834b9187d2bb875bd28, type: 3}
  m_Animations:
  - {fileID: 7400000, guid: f83caac319aea834b9187d2bb875bd28, type: 3}
  m_WrapMode: 0
  m_PlayAutomatically: 1
  m_AnimatePhysics: 0
  m_CullingType: 0
--- !u!23 &1211278769
MeshRenderer:
  m_ObjectHideFlags: 0
  m_PrefabParentObject: {fileID: 2300000, guid: f83caac319aea834b9187d2bb875bd28,
    type: 3}
  m_PrefabInternal: {fileID: 1825951098}
  m_GameObject: {fileID: 1211278765}
  m_Enabled: 1
  m_CastShadows: 1
  m_ReceiveShadows: 1
  m_Materials:
  - {fileID: 2100000, guid: 5bca164e7e9d1684c89b0b662d6e6e83, type: 2}
  m_SubsetIndices: 
  m_StaticBatchRoot: {fileID: 0}
  m_UseLightProbes: 1
  m_ReflectionProbeUsage: 1
  m_ProbeAnchor: {fileID: 0}
  m_ScaleInLightmap: 1
  m_PreserveUVs: 0
  m_IgnoreNormalsForChartDetection: 0
  m_ImportantGI: 0
  m_MinimumChartSize: 4
  m_AutoUVMaxDistance: 0.5
  m_AutoUVMaxAngle: 89
  m_LightmapParameters: {fileID: 0}
  m_SortingLayerID: 0
  m_SortingOrder: 0
--- !u!33 &1211278770
MeshFilter:
  m_ObjectHideFlags: 0
  m_PrefabParentObject: {fileID: 3300000, guid: f83caac319aea834b9187d2bb875bd28,
    type: 3}
  m_PrefabInternal: {fileID: 1825951098}
  m_GameObject: {fileID: 1211278765}
  m_Mesh: {fileID: 4300000, guid: f83caac319aea834b9187d2bb875bd28, type: 3}
--- !u!1 &1338761456
GameObject:
  m_ObjectHideFlags: 0
  m_PrefabParentObject: {fileID: 100000, guid: 5451ebadd01b66d4c9ecaef765e74d3f, type: 3}
  m_PrefabInternal: {fileID: 221725233}
  serializedVersion: 4
  m_Component:
  - 4: {fileID: 1338761461}
  - 33: {fileID: 1338761460}
  - 23: {fileID: 1338761459}
  - 111: {fileID: 1338761458}
  - 114: {fileID: 1338761457}
  m_Layer: 0
  m_Name: room5_bird_1_day
  m_TagString: Untagged
  m_Icon: {fileID: 0}
  m_NavMeshLayer: 0
  m_StaticEditorFlags: 0
  m_IsActive: 1
--- !u!114 &1338761457
MonoBehaviour:
  m_ObjectHideFlags: 0
  m_PrefabParentObject: {fileID: 0}
  m_PrefabInternal: {fileID: 0}
  m_GameObject: {fileID: 1338761456}
  m_Enabled: 1
  m_EditorHideFlags: 0
  m_Script: {fileID: 11500000, guid: 91963b95d61a68444ba594c61aee3deb, type: 3}
  m_Name: 
  m_EditorClassIdentifier: 
  uvAnimationTileX: 6
  uvAnimationTileY: 1
  framesPerSecond: 14
--- !u!111 &1338761458
Animation:
  m_ObjectHideFlags: 0
  m_PrefabParentObject: {fileID: 11100000, guid: 5451ebadd01b66d4c9ecaef765e74d3f,
    type: 3}
  m_PrefabInternal: {fileID: 221725233}
  m_GameObject: {fileID: 1338761456}
  m_Enabled: 1
  serializedVersion: 3
  m_Animation: {fileID: 7400000, guid: 5451ebadd01b66d4c9ecaef765e74d3f, type: 3}
  m_Animations:
  - {fileID: 7400000, guid: 5451ebadd01b66d4c9ecaef765e74d3f, type: 3}
  m_WrapMode: 0
  m_PlayAutomatically: 1
  m_AnimatePhysics: 0
  m_CullingType: 0
--- !u!23 &1338761459
MeshRenderer:
  m_ObjectHideFlags: 0
  m_PrefabParentObject: {fileID: 2300000, guid: 5451ebadd01b66d4c9ecaef765e74d3f,
    type: 3}
  m_PrefabInternal: {fileID: 221725233}
  m_GameObject: {fileID: 1338761456}
  m_Enabled: 1
  m_CastShadows: 1
  m_ReceiveShadows: 1
  m_Materials:
  - {fileID: 2100000, guid: 5bca164e7e9d1684c89b0b662d6e6e83, type: 2}
  m_SubsetIndices: 
  m_StaticBatchRoot: {fileID: 0}
  m_UseLightProbes: 1
  m_ReflectionProbeUsage: 1
  m_ProbeAnchor: {fileID: 0}
  m_ScaleInLightmap: 1
  m_PreserveUVs: 0
  m_IgnoreNormalsForChartDetection: 0
  m_ImportantGI: 0
  m_MinimumChartSize: 4
  m_AutoUVMaxDistance: 0.5
  m_AutoUVMaxAngle: 89
  m_LightmapParameters: {fileID: 0}
  m_SortingLayerID: 0
  m_SortingOrder: 0
--- !u!33 &1338761460
MeshFilter:
  m_ObjectHideFlags: 0
  m_PrefabParentObject: {fileID: 3300000, guid: 5451ebadd01b66d4c9ecaef765e74d3f,
    type: 3}
  m_PrefabInternal: {fileID: 221725233}
  m_GameObject: {fileID: 1338761456}
  m_Mesh: {fileID: 4300000, guid: 5451ebadd01b66d4c9ecaef765e74d3f, type: 3}
--- !u!4 &1338761461
Transform:
  m_ObjectHideFlags: 0
  m_PrefabParentObject: {fileID: 400000, guid: 5451ebadd01b66d4c9ecaef765e74d3f, type: 3}
  m_PrefabInternal: {fileID: 221725233}
  m_GameObject: {fileID: 1338761456}
  m_LocalRotation: {x: -0.023899313, y: -0.74492854, z: 0.00053897855, w: 0.6667159}
  m_LocalPosition: {x: -447.45776, y: -0.6917957, z: 54.748474}
  m_LocalScale: {x: 6.5, y: 6.5, z: 6.5}
  m_Children: []
  m_Father: {fileID: 187407454}
  m_RootOrder: 2
--- !u!1 &1678904017
GameObject:
  m_ObjectHideFlags: 0
  m_PrefabParentObject: {fileID: 0}
  m_PrefabInternal: {fileID: 0}
  serializedVersion: 4
  m_Component:
  - 4: {fileID: 1678904018}
  - 82: {fileID: 1678904019}
  m_Layer: 0
  m_Name: Sound_GameObject_Day_City_FX
  m_TagString: Untagged
  m_Icon: {fileID: 0}
  m_NavMeshLayer: 0
  m_StaticEditorFlags: 0
  m_IsActive: 1
--- !u!4 &1678904018
Transform:
  m_ObjectHideFlags: 0
  m_PrefabParentObject: {fileID: 0}
  m_PrefabInternal: {fileID: 0}
  m_GameObject: {fileID: 1678904017}
  m_LocalRotation: {x: 0, y: 0, z: 0, w: 1}
  m_LocalPosition: {x: -30.551971, y: -7.4802322, z: -0.37560463}
  m_LocalScale: {x: 0.5819656, y: 1.6214904, z: 0.40891317}
  m_Children: []
  m_Father: {fileID: 901542757}
  m_RootOrder: 0
--- !u!82 &1678904019
AudioSource:
  m_ObjectHideFlags: 0
  m_PrefabParentObject: {fileID: 0}
  m_PrefabInternal: {fileID: 0}
  m_GameObject: {fileID: 1678904017}
  m_Enabled: 1
  serializedVersion: 4
  OutputAudioMixerGroup: {fileID: 0}
  m_audioClip: {fileID: 8300000, guid: d7b3d80bc7b8815448f03f8efa899968, type: 3}
  m_PlayOnAwake: 1
  m_Volume: 0.478
  m_Pitch: 1
  Loop: 1
  Mute: 0
  Spatialize: 0
  Priority: 128
  DopplerLevel: 0
  MinDistance: 18.06
  MaxDistance: 40.1
  Pan2D: 0
  rolloffMode: 1
  BypassEffects: 0
  BypassListenerEffects: 0
  BypassReverbZones: 0
  rolloffCustomCurve:
    serializedVersion: 2
    m_Curve:
    - time: 0
      value: 1
      inSlope: 0
      outSlope: 0
      tangentMode: 0
    - time: 1
      value: 0
      inSlope: 0
      outSlope: 0
      tangentMode: 0
    m_PreInfinity: 2
    m_PostInfinity: 2
    m_RotationOrder: 4
  panLevelCustomCurve:
    serializedVersion: 2
    m_Curve:
    - time: 0
      value: 1
      inSlope: 0
      outSlope: 0
      tangentMode: 0
    m_PreInfinity: 2
    m_PostInfinity: 2
    m_RotationOrder: 4
  spreadCustomCurve:
    serializedVersion: 2
    m_Curve:
    - time: 0
      value: 0.225
      inSlope: 0
      outSlope: 0
      tangentMode: 0
    m_PreInfinity: 2
    m_PostInfinity: 2
    m_RotationOrder: 4
  reverbZoneMixCustomCurve:
    serializedVersion: 2
    m_Curve:
    - time: 0
      value: 1.1
      inSlope: 0
      outSlope: 0
      tangentMode: 0
    m_PreInfinity: 2
    m_PostInfinity: 2
    m_RotationOrder: 4
--- !u!1 &1749414559
GameObject:
  m_ObjectHideFlags: 0
  m_PrefabParentObject: {fileID: 100002, guid: 9d4133d5d30b644bd87802a347eaccbe, type: 2}
  m_PrefabInternal: {fileID: 0}
  serializedVersion: 4
  m_Component:
  - 4: {fileID: 1749414560}
  - 143: {fileID: 1749414565}
  - 114: {fileID: 1749414564}
  - 114: {fileID: 1749414563}
  - 114: {fileID: 1749414562}
  - 82: {fileID: 1749414561}
  m_Layer: 0
  m_Name: First Person Controller
  m_TagString: Untagged
  m_Icon: {fileID: 0}
  m_NavMeshLayer: 0
  m_StaticEditorFlags: 0
  m_IsActive: 1
--- !u!4 &1749414560
Transform:
  m_ObjectHideFlags: 0
  m_PrefabParentObject: {fileID: 400002, guid: 9d4133d5d30b644bd87802a347eaccbe, type: 2}
  m_PrefabInternal: {fileID: 0}
  m_GameObject: {fileID: 1749414559}
  m_LocalRotation: {x: 0, y: 0.7442296, z: 0, w: -0.66792387}
  m_LocalPosition: {x: -45.658813, y: -95.74513, z: -3.3430176}
  m_LocalScale: {x: 1, y: 1, z: 1}
  m_Children:
  - {fileID: 1165738335}
  - {fileID: 389818465}
  m_Father: {fileID: 46725057}
  m_RootOrder: 0
--- !u!82 &1749414561
AudioSource:
  m_ObjectHideFlags: 0
  m_PrefabParentObject: {fileID: 0}
  m_PrefabInternal: {fileID: 0}
  m_GameObject: {fileID: 1749414559}
  m_Enabled: 1
  serializedVersion: 4
  OutputAudioMixerGroup: {fileID: 0}
  m_audioClip: {fileID: 8300000, guid: 2c31ac0e40c34e44f9e6cee644fd6813, type: 3}
  m_PlayOnAwake: 1
  m_Volume: 1
  m_Pitch: 1
  Loop: 1
  Mute: 0
  Spatialize: 0
  Priority: 128
  DopplerLevel: 1
  MinDistance: 1
  MaxDistance: 500
  Pan2D: 0
  rolloffMode: 0
  BypassEffects: 0
  BypassListenerEffects: 0
  BypassReverbZones: 0
  rolloffCustomCurve:
    serializedVersion: 2
    m_Curve:
    - time: 0
      value: 1
      inSlope: 0
      outSlope: 0
      tangentMode: 0
    - time: 1
      value: 0
      inSlope: 0
      outSlope: 0
      tangentMode: 0
    m_PreInfinity: 2
    m_PostInfinity: 2
    m_RotationOrder: 4
  panLevelCustomCurve:
    serializedVersion: 2
    m_Curve:
    - time: 0
      value: 1
      inSlope: 0
      outSlope: 0
      tangentMode: 0
    m_PreInfinity: 2
    m_PostInfinity: 2
    m_RotationOrder: 4
  spreadCustomCurve:
    serializedVersion: 2
    m_Curve:
    - time: 0
      value: 0
      inSlope: 0
      outSlope: 0
      tangentMode: 0
    m_PreInfinity: 2
    m_PostInfinity: 2
    m_RotationOrder: 4
  reverbZoneMixCustomCurve:
    serializedVersion: 2
    m_Curve:
    - time: 0
      value: 1
      inSlope: 0
      outSlope: 0
      tangentMode: 0
    m_PreInfinity: 2
    m_PostInfinity: 2
    m_RotationOrder: 4
--- !u!114 &1749414562
MonoBehaviour:
  m_ObjectHideFlags: 0
  m_PrefabParentObject: {fileID: 11400004, guid: 9d4133d5d30b644bd87802a347eaccbe,
    type: 2}
  m_PrefabInternal: {fileID: 0}
  m_GameObject: {fileID: 1749414559}
  m_Enabled: 1
  m_EditorHideFlags: 0
  m_Script: {fileID: 11500000, guid: 60bca8f58a0b8478e946e6e86658cb29, type: 3}
  m_Name: 
  m_EditorClassIdentifier: 
--- !u!114 &1749414563
MonoBehaviour:
  m_ObjectHideFlags: 0
  m_PrefabParentObject: {fileID: 11400002, guid: 9d4133d5d30b644bd87802a347eaccbe,
    type: 2}
  m_PrefabInternal: {fileID: 0}
  m_GameObject: {fileID: 1749414559}
  m_Enabled: 1
  m_EditorHideFlags: 0
  m_Script: {fileID: 11500000, guid: 0ab79d7f243824f5d9826bd83522c8df, type: 3}
  m_Name: 
  m_EditorClassIdentifier: 
  canControl: 1
  useFixedUpdate: 1
  movement:
    maxForwardSpeed: 3
    maxSidewaysSpeed: 3
    maxBackwardsSpeed: 3
    slopeSpeedMultiplier:
      serializedVersion: 2
      m_Curve:
      - time: -90
        value: 1
        inSlope: 0
        outSlope: 0
        tangentMode: 0
      - time: 0
        value: 1
        inSlope: 0
        outSlope: 0
        tangentMode: 0
      - time: 90
        value: 0
        inSlope: 0
        outSlope: 0
        tangentMode: 0
      m_PreInfinity: 2
      m_PostInfinity: 2
      m_RotationOrder: 4
    maxGroundAcceleration: 20
    maxAirAcceleration: 15
    gravity: 20
    maxFallSpeed: 20
  jumping:
    enabled: 0
    baseHeight: 1
    extraHeight: 1
    perpAmount: 0
    steepPerpAmount: 0.5
  movingPlatform:
    enabled: 1
    movementTransfer: 2
  sliding:
    enabled: 1
    slidingSpeed: 10
    sidewaysControl: 1
    speedControl: 0.4
--- !u!114 &1749414564
MonoBehaviour:
  m_ObjectHideFlags: 0
  m_PrefabParentObject: {fileID: 11400000, guid: 9d4133d5d30b644bd87802a347eaccbe,
    type: 2}
  m_PrefabInternal: {fileID: 0}
  m_GameObject: {fileID: 1749414559}
  m_Enabled: 1
  m_EditorHideFlags: 0
  m_Script: {fileID: 11500000, guid: 68ec2fe99d1108b9d0006a298d76c639, type: 3}
  m_Name: 
  m_EditorClassIdentifier: 
  axes: 1
  sensitivityX: 10
  sensitivityY: 0
  minimumX: -360
  maximumX: 360
  minimumY: 0
  maximumY: 0
--- !u!143 &1749414565
CharacterController:
  m_ObjectHideFlags: 0
  m_PrefabParentObject: {fileID: 14300000, guid: 9d4133d5d30b644bd87802a347eaccbe,
    type: 2}
  m_PrefabInternal: {fileID: 0}
  m_GameObject: {fileID: 1749414559}
  m_Material: {fileID: 0}
  m_IsTrigger: 0
  m_Enabled: 1
  serializedVersion: 2
  m_Height: 1.7
  m_Radius: 0.1
  m_SlopeLimit: 45
  m_StepOffset: 0.4
  m_SkinWidth: 0.05
  m_MinMoveDistance: 0
  m_Center: {x: 0, y: 0, z: 0}
--- !u!1001 &1825951098
Prefab:
  m_ObjectHideFlags: 0
  serializedVersion: 2
  m_Modification:
    m_TransformParent: {fileID: 187407454}
    m_Modifications:
    - target: {fileID: 400000, guid: f83caac319aea834b9187d2bb875bd28, type: 3}
      propertyPath: m_LocalPosition.x
      value: -459.84201
      objectReference: {fileID: 0}
    - target: {fileID: 400000, guid: f83caac319aea834b9187d2bb875bd28, type: 3}
      propertyPath: m_LocalPosition.y
      value: -.692545831
      objectReference: {fileID: 0}
    - target: {fileID: 400000, guid: f83caac319aea834b9187d2bb875bd28, type: 3}
      propertyPath: m_LocalPosition.z
      value: 58.9994087
      objectReference: {fileID: 0}
    - target: {fileID: 400000, guid: f83caac319aea834b9187d2bb875bd28, type: 3}
      propertyPath: m_LocalRotation.x
      value: .0137173478
      objectReference: {fileID: 0}
    - target: {fileID: 400000, guid: f83caac319aea834b9187d2bb875bd28, type: 3}
      propertyPath: m_LocalRotation.y
      value: -.743774712
      objectReference: {fileID: 0}
    - target: {fileID: 400000, guid: f83caac319aea834b9187d2bb875bd28, type: 3}
      propertyPath: m_LocalRotation.z
      value: -.0414489135
      objectReference: {fileID: 0}
    - target: {fileID: 400000, guid: f83caac319aea834b9187d2bb875bd28, type: 3}
      propertyPath: m_LocalRotation.w
      value: .667003095
      objectReference: {fileID: 0}
    m_RemovedComponents: []
  m_ParentPrefab: {fileID: 100100000, guid: f83caac319aea834b9187d2bb875bd28, type: 3}
  m_RootGameObject: {fileID: 1211278765}
  m_IsPrefabParent: 0
--- !u!1 &1870656308
GameObject:
  m_ObjectHideFlags: 0
  m_PrefabParentObject: {fileID: 100000, guid: 7744aed91c030e242bbadd090dfe4bf9, type: 3}
  m_PrefabInternal: {fileID: 57211269}
  serializedVersion: 4
  m_Component:
  - 4: {fileID: 1870656309}
  - 33: {fileID: 1870656313}
  - 23: {fileID: 1870656312}
  - 111: {fileID: 1870656311}
  - 114: {fileID: 1870656310}
  m_Layer: 0
  m_Name: room5_bird_3_day
  m_TagString: Untagged
  m_Icon: {fileID: 0}
  m_NavMeshLayer: 0
  m_StaticEditorFlags: 0
  m_IsActive: 1
--- !u!4 &1870656309
Transform:
  m_ObjectHideFlags: 0
  m_PrefabParentObject: {fileID: 400000, guid: 7744aed91c030e242bbadd090dfe4bf9, type: 3}
  m_PrefabInternal: {fileID: 57211269}
  m_GameObject: {fileID: 1870656308}
  m_LocalRotation: {x: 0.013717348, y: -0.7437747, z: -0.041448914, w: 0.6670031}
  m_LocalPosition: {x: -465.0443, y: -0.6917957, z: 61.26002}
  m_LocalScale: {x: 6, y: 6, z: 6}
  m_Children: []
  m_Father: {fileID: 187407454}
  m_RootOrder: 0
--- !u!114 &1870656310
MonoBehaviour:
  m_ObjectHideFlags: 0
  m_PrefabParentObject: {fileID: 0}
  m_PrefabInternal: {fileID: 0}
  m_GameObject: {fileID: 1870656308}
  m_Enabled: 1
  m_EditorHideFlags: 0
  m_Script: {fileID: 11500000, guid: 91963b95d61a68444ba594c61aee3deb, type: 3}
  m_Name: 
  m_EditorClassIdentifier: 
  uvAnimationTileX: 6
  uvAnimationTileY: 1
  framesPerSecond: 18
--- !u!111 &1870656311
Animation:
  m_ObjectHideFlags: 0
  m_PrefabParentObject: {fileID: 11100000, guid: 7744aed91c030e242bbadd090dfe4bf9,
    type: 3}
  m_PrefabInternal: {fileID: 57211269}
  m_GameObject: {fileID: 1870656308}
  m_Enabled: 1
  serializedVersion: 3
  m_Animation: {fileID: 7400000, guid: 7744aed91c030e242bbadd090dfe4bf9, type: 3}
  m_Animations:
  - {fileID: 7400000, guid: 7744aed91c030e242bbadd090dfe4bf9, type: 3}
  m_WrapMode: 0
  m_PlayAutomatically: 1
  m_AnimatePhysics: 0
  m_CullingType: 0
--- !u!23 &1870656312
MeshRenderer:
  m_ObjectHideFlags: 0
  m_PrefabParentObject: {fileID: 2300000, guid: 7744aed91c030e242bbadd090dfe4bf9,
    type: 3}
  m_PrefabInternal: {fileID: 57211269}
  m_GameObject: {fileID: 1870656308}
  m_Enabled: 1
  m_CastShadows: 1
  m_ReceiveShadows: 1
  m_Materials:
  - {fileID: 2100000, guid: 5bca164e7e9d1684c89b0b662d6e6e83, type: 2}
  m_SubsetIndices: 
  m_StaticBatchRoot: {fileID: 0}
  m_UseLightProbes: 1
  m_ReflectionProbeUsage: 1
  m_ProbeAnchor: {fileID: 0}
  m_ScaleInLightmap: 1
  m_PreserveUVs: 0
  m_IgnoreNormalsForChartDetection: 0
  m_ImportantGI: 0
  m_MinimumChartSize: 4
  m_AutoUVMaxDistance: 0.5
  m_AutoUVMaxAngle: 89
  m_LightmapParameters: {fileID: 0}
  m_SortingLayerID: 0
  m_SortingOrder: 0
--- !u!33 &1870656313
MeshFilter:
  m_ObjectHideFlags: 0
  m_PrefabParentObject: {fileID: 3300000, guid: 7744aed91c030e242bbadd090dfe4bf9,
    type: 3}
  m_PrefabInternal: {fileID: 57211269}
  m_GameObject: {fileID: 1870656308}
  m_Mesh: {fileID: 4300000, guid: 7744aed91c030e242bbadd090dfe4bf9, type: 3}
--- !u!1 &2141409360
GameObject:
  m_ObjectHideFlags: 0
  m_PrefabParentObject: {fileID: 100000, guid: acf4a52340d407e45a44ee80f0bffe16, type: 3}
  m_PrefabInternal: {fileID: 151607927}
  serializedVersion: 4
  m_Component:
  - 4: {fileID: 2141409361}
  - 33: {fileID: 2141409365}
  - 23: {fileID: 2141409364}
  - 111: {fileID: 2141409363}
  - 114: {fileID: 2141409362}
  m_Layer: 0
  m_Name: room5_bird_2_day
  m_TagString: Untagged
  m_Icon: {fileID: 0}
  m_NavMeshLayer: 0
  m_StaticEditorFlags: 0
  m_IsActive: 1
--- !u!4 &2141409361
Transform:
  m_ObjectHideFlags: 0
  m_PrefabParentObject: {fileID: 400000, guid: acf4a52340d407e45a44ee80f0bffe16, type: 3}
  m_PrefabInternal: {fileID: 151607927}
  m_GameObject: {fileID: 2141409360}
  m_LocalRotation: {x: 0.013717348, y: -0.7437747, z: -0.041448914, w: 0.6670031}
  m_LocalPosition: {x: -456.0814, y: -0.6917957, z: 61.26002}
  m_LocalScale: {x: 6, y: 6, z: 6}
  m_Children: []
  m_Father: {fileID: 187407454}
  m_RootOrder: 1
--- !u!114 &2141409362
MonoBehaviour:
  m_ObjectHideFlags: 0
  m_PrefabParentObject: {fileID: 0}
  m_PrefabInternal: {fileID: 0}
  m_GameObject: {fileID: 2141409360}
  m_Enabled: 1
  m_EditorHideFlags: 0
  m_Script: {fileID: 11500000, guid: 91963b95d61a68444ba594c61aee3deb, type: 3}
  m_Name: 
  m_EditorClassIdentifier: 
  uvAnimationTileX: 6
  uvAnimationTileY: 1
  framesPerSecond: 12
--- !u!111 &2141409363
Animation:
  m_ObjectHideFlags: 0
  m_PrefabParentObject: {fileID: 11100000, guid: acf4a52340d407e45a44ee80f0bffe16,
    type: 3}
  m_PrefabInternal: {fileID: 151607927}
  m_GameObject: {fileID: 2141409360}
  m_Enabled: 1
  serializedVersion: 3
  m_Animation: {fileID: 7400000, guid: acf4a52340d407e45a44ee80f0bffe16, type: 3}
  m_Animations:
  - {fileID: 7400000, guid: acf4a52340d407e45a44ee80f0bffe16, type: 3}
  m_WrapMode: 0
  m_PlayAutomatically: 1
  m_AnimatePhysics: 0
  m_CullingType: 0
--- !u!23 &2141409364
MeshRenderer:
  m_ObjectHideFlags: 0
  m_PrefabParentObject: {fileID: 2300000, guid: acf4a52340d407e45a44ee80f0bffe16,
    type: 3}
  m_PrefabInternal: {fileID: 151607927}
  m_GameObject: {fileID: 2141409360}
  m_Enabled: 1
  m_CastShadows: 1
  m_ReceiveShadows: 1
  m_Materials:
  - {fileID: 2100000, guid: 5bca164e7e9d1684c89b0b662d6e6e83, type: 2}
  m_SubsetIndices: 
  m_StaticBatchRoot: {fileID: 0}
  m_UseLightProbes: 1
  m_ReflectionProbeUsage: 1
  m_ProbeAnchor: {fileID: 0}
  m_ScaleInLightmap: 1
  m_PreserveUVs: 0
  m_IgnoreNormalsForChartDetection: 0
  m_ImportantGI: 0
  m_MinimumChartSize: 4
  m_AutoUVMaxDistance: 0.5
  m_AutoUVMaxAngle: 89
  m_LightmapParameters: {fileID: 0}
  m_SortingLayerID: 0
  m_SortingOrder: 0
--- !u!33 &2141409365
MeshFilter:
  m_ObjectHideFlags: 0
  m_PrefabParentObject: {fileID: 3300000, guid: acf4a52340d407e45a44ee80f0bffe16,
    type: 3}
  m_PrefabInternal: {fileID: 151607927}
  m_GameObject: {fileID: 2141409360}
  m_Mesh: {fileID: 4300000, guid: acf4a52340d407e45a44ee80f0bffe16, type: 3}
--- !u!1001 &2141810604
Prefab:
  m_ObjectHideFlags: 0
  serializedVersion: 2
  m_Modification:
    m_TransformParent: {fileID: 0}
    m_Modifications:
    - target: {fileID: 400000, guid: b920d9752f360a74f9532c50a2e18d6a, type: 3}
      propertyPath: m_LocalPosition.x
      value: -0
      objectReference: {fileID: 0}
    - target: {fileID: 400000, guid: b920d9752f360a74f9532c50a2e18d6a, type: 3}
      propertyPath: m_LocalPosition.y
      value: 0
      objectReference: {fileID: 0}
    - target: {fileID: 400000, guid: b920d9752f360a74f9532c50a2e18d6a, type: 3}
      propertyPath: m_LocalPosition.z
      value: 0
      objectReference: {fileID: 0}
    - target: {fileID: 400000, guid: b920d9752f360a74f9532c50a2e18d6a, type: 3}
      propertyPath: m_LocalRotation.x
      value: 0
      objectReference: {fileID: 0}
    - target: {fileID: 400000, guid: b920d9752f360a74f9532c50a2e18d6a, type: 3}
      propertyPath: m_LocalRotation.y
      value: -0
      objectReference: {fileID: 0}
    - target: {fileID: 400000, guid: b920d9752f360a74f9532c50a2e18d6a, type: 3}
      propertyPath: m_LocalRotation.z
      value: -0
      objectReference: {fileID: 0}
    - target: {fileID: 400000, guid: b920d9752f360a74f9532c50a2e18d6a, type: 3}
      propertyPath: m_LocalRotation.w
      value: 1
      objectReference: {fileID: 0}
    m_RemovedComponents: []
  m_ParentPrefab: {fileID: 100100000, guid: b920d9752f360a74f9532c50a2e18d6a, type: 3}
  m_RootGameObject: {fileID: 793696548}
  m_IsPrefabParent: 0
